<?xml version="1.0" encoding="utf-8"?>
<!-- Generator: Adobe Illustrator 15.0.0, SVG Export Plug-In . SVG Version: 6.00 Build 0)  -->
<!DOCTYPE svg PUBLIC "-//W3C//DTD SVG 1.1//EN" "http://www.w3.org/Graphics/SVG/1.1/DTD/svg11.dtd">
<svg version="1.1" id="Capa_1" xmlns="http://www.w3.org/2000/svg" xmlns:xlink="http://www.w3.org/1999/xlink" x="0px" y="0px"
	 width="402.3px" height="438.6px" viewBox="0 0 402.3 438.6" enable-background="new 0 0 402.3 438.6" xml:space="preserve">
<g>
	<path fill="#8A8A8A" d="M378.546,160.776l-126.816-0.184c0,0,9.498-38.869,11.204-57.081c1.151-12.448,1.429-24.851-1.429-37.115
		c-4.244-18.443-8.991-29.969-16.553-44.262c-4.059-7.562-11.897-12.265-20.427-12.265h-31.72c-12.771,0-23.1,10.375-23.054,23.146
		c0.092,21.347,0.092,49.841-0.369,50.81c-12.449,26.188-26.88,51.316-43.156,75.292c-7.423,10.973-15.215,21.623-24.251,31.351
		c-3.966,4.243-6.132,9.867-6.132,15.631v201.578c0,5.946,2.304,11.71,6.454,15.999c6.178,6.362,17.244,13.924,35.409,13.924
		c57.312-0.23,113.167-0.738,179.195-0.277c8.254,0.047,15.906-4.287,20.055-11.436l58.234-99.683
		c3.965-6.915,6.039-14.753,6.086-22.729l0.322-119.555C401.601,171.148,391.271,160.822,378.546,160.776z"/>
	<path fill="#8A8A8A" d="M44.619,193.696H23.963c-12.725,0-23.053,10.328-23.053,23.053v197.795
		c0,12.729,10.328,23.056,23.053,23.056h20.61c12.726,0,23.053-10.326,23.053-23.056V216.749
		C67.672,204.024,57.345,193.696,44.619,193.696z"/>
</g>
</svg>
